meow,meowflushed,https://cdn.discordapp.com/emojis/350320411617263618.png
meow,meowpeek,https://cdn.discordapp.com/emojis/350401541066194954.png
meow,meowamused,https://cdn.discordapp.com/emojis/350450437347999744.png
meow,meowaww,https://cdn.discordapp.com/emojis/350668586253025280.png
meow,meowkissblush,https://cdn.discordapp.com/emojis/350674039460855809.png
meow,meowthumbsup,https://cdn.discordapp.com/emojis/350676297846095872.png
meow,meowthinking,https://cdn.discordapp.com/emojis/350680941804388352.png
meow,meowrollingeyes,https://cdn.discordapp.com/emojis/350733329676501002.png
meow,meownervous,https://cdn.discordapp.com/emojis/350753356714606603.png
meow,meowshh,https://cdn.discordapp.com/emojis/350774165801926675.png
meow,meowsmilehappyeyes,https://cdn.discordapp.com/emojis/350780770836545536.png
meow,meowfacepalm,https://cdn.discordapp.com/emojis/350785335208181772.png
meow,meowmelt,https://cdn.discordapp.com/emojis/351090256717807618.png
meow,meowheart,https://cdn.discordapp.com/emojis/351097460589854720.png
meow,meowsmirk,https://cdn.discordapp.com/emojis/351180991458705409.png
meow,meowhyperthink,https://cdn.discordapp.com/emojis/352552164356259853.png
meow,meowuwu,https://cdn.discordapp.com/emojis/352818252579078144.png
meow,meowowo,https://cdn.discordapp.com/emojis/352818268572221442.png
meow,meowthinkingcool,https://cdn.discordapp.com/emojis/353898172923510784.png
meow,meowdrool,https://cdn.discordapp.com/emojis/353898220373671936.png
meow,meownauseated,https://cdn.discordapp.com/emojis/356860802545745920.png
meow,meowpopcorn,https://cdn.discordapp.com/emojis/356860829456531467.png
meow,meowwaitwhat,https://cdn.discordapp.com/emojis/356860875795202050.png
meow,meowupset,https://cdn.discordapp.com/emojis/357945159914356736.png
meow,meowtilt,https://cdn.discordapp.com/emojis/358328186519420929.png
meow,meowsleepless,https://cdn.discordapp.com/emojis/358328609368440842.png
meow,meowtired,https://cdn.discordapp.com/emojis/361151997488922626.png
meow,meowpats,https://cdn.discordapp.com/emojis/364809163727175680.png
meow,meowglare,https://cdn.discordapp.com/emojis/375345123749527564.png
meow,meowowoevil,https://cdn.discordapp.com/emojis/375685680116006933.png
meow,meowpurrfecto,https://cdn.discordapp.com/emojis/376080577557692416.png
meow,meowblush,https://cdn.discordapp.com/emojis/380802572375818253.png
meow,meowthinkingsmirk,https://cdn.discordapp.com/emojis/385429937630347264.png
meow,meowstop,https://cdn.discordapp.com/emojis/406901726101372939.png
meow,meowsad,https://cdn.discordapp.com/emojis/415955901162455040.png
meow,meowcowboy,https://cdn.discordapp.com/emojis/447075093944860682.png
meow,meowwave,https://cdn.discordapp.com/emojis/380069533752360970.png
meow,meowpolice,https://cdn.discordapp.com/emojis/380069616346464266.png
meow,meowdevil,https://cdn.discordapp.com/emojis/498186332066152459.png
meow,meowkiss,https://cdn.discordapp.com/emojis/380816379974254601.png
meow,meowpout,https://cdn.discordapp.com/emojis/380069908991574017.png
meow,meowcoy,https://cdn.discordapp.com/emojis/380070009210404868.png
meow,meowcheer,https://cdn.discordapp.com/emojis/380070162092654596.png
meow,meowmeltmeltmeltmelt,https://cdn.discordapp.com/emojis/380070717540007958.png
meow,meowsweats,https://cdn.discordapp.com/emojis/380070955302780928.png
meow,meowokhand,https://cdn.discordapp.com/emojis/380084155968651284.png
meow,meowreachrev,https://cdn.discordapp.com/emojis/380089208846680064.png
meow,meowreach,https://cdn.discordapp.com/emojis/380089286831374337.png
meow,meowopenmouth,https://cdn.discordapp.com/emojis/380097610553360394.png
meow,meowweary,https://cdn.discordapp.com/emojis/380110519215980559.png
meow,meownomcookie,https://cdn.discordapp.com/emojis/380404639880839179.png
meow,meowwink,https://cdn.discordapp.com/emojis/380472405677834241.png
meow,meowthumbsdown,https://cdn.discordapp.com/emojis/381580452508598282.png
meow,meowthinkingglare,https://cdn.discordapp.com/emojis/382244486765346826.png
meow,meowscream,https://cdn.discordapp.com/emojis/385423029100085249.png
meow,meowgift,https://cdn.discordapp.com/emojis/386286714110476288.png
meow,meowhearteyes,https://cdn.discordapp.com/emojis/387008651593777173.png
meow,meowdizzy,https://cdn.discordapp.com/emojis/390261220491395073.png
meow,meowupsidedown,https://cdn.discordapp.com/emojis/390962614840328192.png
meow,meownom,https://cdn.discordapp.com/emojis/391358218971906050.png
meow,meowneutral,https://cdn.discordapp.com/emojis/391376250259898400.png
meow,meowwaverev,https://cdn.discordapp.com/emojis/391681952018726934.png
meow,meowsmile,https://cdn.discordapp.com/emojis/396448565213396992.png
meow,meowsleeping,https://cdn.discordapp.com/emojis/396451934921555978.png
meow,meowhuh,https://cdn.discordapp.com/emojis/398175245934133269.png
meow,meowmelttears,https://cdn.discordapp.com/emojis/403918876737536021.png
meow,meowsadpats,https://cdn.discordapp.com/emojis/406922342061572097.png
meow,meowsnuggle,https://cdn.discordapp.com/emojis/406922357312192553.png
meow,meowcamera,https://cdn.discordapp.com/emojis/407202980610310154.png
meow,meowtongue,https://cdn.discordapp.com/emojis/409770961831854080.png
meow,meowangel,https://cdn.discordapp.com/emojis/411237179231174667.png
meow,meowmeltmelt,https://cdn.discordapp.com/emojis/415956040702492693.png
meow,meowmeltmeltmelt,https://cdn.discordapp.com/emojis/415956968499314700.png
meow,meowsob,https://cdn.discordapp.com/emojis/430363684955488256.png
meow,meowdab,https://cdn.discordapp.com/emojis/411236858538754050.png
meow,meowwhistle,https://cdn.discordapp.com/emojis/411241780445577236.png
meow,meowsmileopenmouth,https://cdn.discordapp.com/emojis/411254866049237003.png
meow,meowterrified,https://cdn.discordapp.com/emojis/411257362083741727.png
meow,meowtonguewink,https://cdn.discordapp.com/emojis/415165551548301332.png
meow,meowcry,https://cdn.discordapp.com/emojis/415165613191725056.png
meow,meowthonkang,https://cdn.discordapp.com/emojis/415308094130880522.png
meow,meowhearthug,https://cdn.discordapp.com/emojis/415588670331027478.png
meow,meowcoffee,https://cdn.discordapp.com/emojis/417357486329298954.png
meow,meowmorning,https://cdn.discordapp.com/emojis/424585599685623809.png
meow,meowevening,https://cdn.discordapp.com/emojis/424585609219407872.png
meow,meowdetective,https://cdn.discordapp.com/emojis/426067749756862495.png
meow,meowxd,https://cdn.discordapp.com/emojis/427470977895759883.png
meow,meowheadphones,https://cdn.discordapp.com/emojis/427472210383601675.png
meow,meowreachsad,https://cdn.discordapp.com/emojis/438262935693819916.png
meow,meowreachsadrev,https://cdn.discordapp.com/emojis/438262958351581205.png
meow,meowthinksmart,https://cdn.discordapp.com/emojis/438755226066092063.png
meow,meowshrug,https://cdn.discordapp.com/emojis/442778936452055040.png
meow,meowwavepeek,https://cdn.discordapp.com/emojis/446287918063943687.png
meow,meowthinkingportal,https://cdn.discordapp.com/emojis/447074986516021258.png
meow,meowsmilesweat,https://cdn.discordapp.com/emojis/454580034234089472.png
meow,meowghostwave,https://cdn.discordapp.com/emojis/464048072897593354.png
meow,meowmeltthumbsup,https://cdn.discordapp.com/emojis/464060240539811840.png
meow,meowtihihi,https://cdn.discordapp.com/emojis/465506446893645825.png
meow,meowinlove,https://cdn.discordapp.com/emojis/477173170227642378.png
meow,meowbox,https://cdn.discordapp.com/emojis/477383083650187264.png
meow,meownwn,https://cdn.discordapp.com/emojis/496316729056821261.png
meow,meowderpy,https://cdn.discordapp.com/emojis/496391957120286740.png

meow_anim,meowpeek,https://cdn.discordapp.com/emojis/393733594176290826.gif
meow_anim,meowmelt,https://cdn.discordapp.com/emojis/393813014157197324.gif
meow_anim,meowsweats,https://cdn.discordapp.com/emojis/394091544065474560.gif
meow_anim,meowwave,https://cdn.discordapp.com/emojis/394101112652693526.gif
meow_anim,meowhyperthink,https://cdn.discordapp.com/emojis/394854052053254154.gif
meow_anim,meowowo,https://cdn.discordapp.com/emojis/403166554251853834.gif
meow_anim,meowbounce,https://cdn.discordapp.com/emojis/406559919681175572.gif
meow_anim,meowcoffee,https://cdn.discordapp.com/emojis/417785556777304075.gif
meow_anim,meowcoffeespit,https://cdn.discordapp.com/emojis/418456126699601942.gif
meow_anim,meownom,https://cdn.discordapp.com/emojis/420662959975694349.gif
meow_anim,meowlurk,https://cdn.discordapp.com/emojis/450929014597615616.gif
meow_anim,meowattention,https://cdn.discordapp.com/emojis/451143444753154058.gif
meow_anim,meowattentionrev,https://cdn.discordapp.com/emojis/451143444908212224.gif
meow_anim,meowhearteyes,https://cdn.discordapp.com/emojis/453978291431276566.gif
meow_anim,meowreach,https://cdn.discordapp.com/emojis/455010658157592587.gif
meow_anim,meowreachrev,https://cdn.discordapp.com/emojis/455010658782674944.gif
meow_anim,meowdab,https://cdn.discordapp.com/emojis/455032619114037249.gif
meow_anim,meowparty,https://cdn.discordapp.com/emojis/455135569287315496.gif
meow_anim,meowhappypaws,https://cdn.discordapp.com/emojis/471640366093828096.gif
meow_anim,meowbox,https://cdn.discordapp.com/emojis/478265799023394843.gif
meow_anim,meowbongo,https://cdn.discordapp.com/emojis/491307921234460672.gif
meow_anim,meowbongotap,https://cdn.discordapp.com/emojis/492365244367372319.gif

blobcat,blobcat,https://cdn.discordapp.com/emojis/433371448200134669.png
blobcat,blobcathappy,https://cdn.discordapp.com/emojis/400064206050689024.png
blobcat,blobcoolcat,https://cdn.discordapp.com/emojis/400064206688223232.png
blobcat,blobcatwink,https://cdn.discordapp.com/emojis/433371448355323925.png
blobcat,blobcatwinktongue,https://cdn.discordapp.com/emojis/400064206155546634.png
blobcat,blobcatcoffee,https://cdn.discordapp.com/emojis/400064206377844738.png
blobcat,blobcatsad,https://cdn.discordapp.com/emojis/400064206310998035.png
blobcat,blobcatblep,https://cdn.discordapp.com/emojis/400064205547634688.png
blobcat,blobcatevil,https://cdn.discordapp.com/emojis/361493598341955596.png
blobcat,blobcataww,https://cdn.discordapp.com/emojis/424277325979320321.png
blobcat,blobcatpats,https://cdn.discordapp.com/emojis/366504744262303754.png
blobcat,blobcatangry,https://cdn.discordapp.com/emojis/362214428738846721.png
blobcat,blobcatmlem,https://cdn.discordapp.com/emojis/363027617827258380.png
blobcat,blobcatthumbsup,https://cdn.discordapp.com/emojis/366511315042172934.png
blobcat,blobcatthumbsdown,https://cdn.discordapp.com/emojis/366511377537433600.png
blobcat,blobcatsleep,https://cdn.discordapp.com/emojis/366511635243728896.png
blobcat,blobcatblush,https://cdn.discordapp.com/emojis/400065362378489856.png
blobcat,blobcatsneezing,https://cdn.discordapp.com/emojis/366564393485598720.png
blobcat,blobcatsnuggle,https://cdn.discordapp.com/emojis/368734002359697413.png
blobcat,blobcathighfive,https://cdn.discordapp.com/emojis/400065363225608193.png
blobcat,blobcatheart,https://cdn.discordapp.com/emojis/438396305564237844.png
blobcat,blobcatfearful,https://cdn.discordapp.com/emojis/370642365431676939.png
blobcat,blobcattilt,https://cdn.discordapp.com/emojis/370642365645586432.png
blobcat,blobcatfingerguns,https://cdn.discordapp.com/emojis/400065363573735434.png
blobcat,blobcattea,https://cdn.discordapp.com/emojis/371388877174210560.png
blobcat,blobcatkissheart,https://cdn.discordapp.com/emojis/374014216245608448.png
blobcat,blobcatshy,https://cdn.discordapp.com/emojis/374014216237088770.png
blobcat,blobcathissing,https://cdn.discordapp.com/emojis/376782221631160330.png
blobcat,blobcattableflip,https://cdn.discordapp.com/emojis/376800561108090881.png
blobcat,blobcathug,https://cdn.discordapp.com/emojis/400072211345702912.png
blobcat,blobcatlewd,https://cdn.discordapp.com/emojis/380841134051557376.png
blobcat,blobcatdab,https://cdn.discordapp.com/emojis/400072210628214789.png
blobcat,blobcatcouple,https://cdn.discordapp.com/emojis/384077830935412737.png
blobcat,blobcatjava,https://cdn.discordapp.com/emojis/390251924781400066.png
blobcat,blobcatunamused,https://cdn.discordapp.com/emojis/400073196457426944.png
blobcat,blobcatscared,https://cdn.discordapp.com/emojis/404298286699249664.png
blobcat,blobcatmorningcoffee,https://cdn.discordapp.com/emojis/405851205320048641.png
blobcat,blobcat3c,https://cdn.discordapp.com/emojis/465964818189254656.png
blobcat,blobcatbusiness,https://cdn.discordapp.com/emojis/438064253040066570.png
blobcat,blobcatdeficit,https://cdn.discordapp.com/emojis/438064253216489482.png
blobcat,blobcatscience,https://cdn.discordapp.com/emojis/424273608056111104.png
blobcat,blobcatstop,https://cdn.discordapp.com/emojis/465897763188637727.png

blobcat_anim,blobcatpeek,https://cdn.discordapp.com/emojis/397082489484607490.gif
blobcat_anim,blobcatsleep,https://cdn.discordapp.com/emojis/397082489484607490.gif
blobcat_anim,blobcatwink,https://cdn.discordapp.com/emojis/433382866995380234.gif
